Parliament Plots • ggparliament
…
devtools::install_github("zmeers/ggparliament")

Inspiration from this package comes from: parliamentdiagram, which is used on Wikipedia, parliament-svg, which is a javascript clone, and a discussion on StackOverflow, which provided some of the code for part for the “arc” representations used in this package.

If you have any issues, please note the problem and inform us!

Election data

ggparliament provides election data from the following countries.

election_data %>% 
  distinct(year, country, house) %>% 
  arrange(country, year)

## # A tibble: 39 x 3
##    country    year house          
##    <chr>     <dbl> <chr>          
##  1 Australia  2010 Representatives
##  2 Australia  2010 Senate         
##  3 Australia  2013 Representatives
##  4 Australia  2013 Senate         
##  5 Australia  2016 Representatives
##  6 Australia  2016 Senate         
##  7 Australia  2019 Representatives
##  8 Australia  2019 Senate         
##  9 Chile      2009 Diputados      
## 10 Chile      2009 Senadores      
## # … with 29 more rows
…
